
jiangpai_T.png
size: 296,158
format: RGBA8888
filter: Linear,Linear
repeat: none
t
  rotate: false
  xy: 188, 52
  size: 108, 106
  orig: 108, 106
  offset: 0, 0
  index: -1
t2
  rotate: false
  xy: 0, 0
  size: 188, 158
  orig: 188, 158
  offset: 0, 0
  index: -1
